…
## 데이터 사용

리스트내에 `mining_sample`과 같이 데이터셋 이름의 뒤에 `_sample` 이 붙은 데이터가 아니라면 바로 이름으로
사용할 수 있습니다.

``` r
avocado
#> # A tibble: 18,249 x 13
#>    Date                AveragePrice `Total Volume` `4046` `4225` `4770` `Total Bags` `Small Bags`
#>    <dttm>                     <dbl>          <dbl>  <dbl>  <dbl>  <dbl>        <dbl>        <dbl>
#>  1 2015-12-27 00:00:00         1.33         64237.  1037. 5.45e4   48.2        8697.        8604.
#>  2 2015-12-20 00:00:00         1.35         54877.   674. 4.46e4   58.3        9506.        9408.
#>  3 2015-12-13 00:00:00         0.93        118220.   795. 1.09e5  130.         8145.        8042.
#>  4 2015-12-06 00:00:00         1.08         78992.  1132  7.20e4   72.6        5811.        5677.
#>  5 2015-11-29 00:00:00         1.28         51040.   941. 4.38e4   75.8        6184.        5986.
#>  6 2015-11-22 00:00:00         1.26         55980.  1184. 4.81e4   43.6        6684.        6556.
#>  7 2015-11-15 00:00:00         0.99         83454.  1369. 7.37e4   93.3        8319.        8197.
#>  8 2015-11-08 00:00:00         0.98        109428.   704. 1.02e5   80          6829.        6267.
#>  9 2015-11-01 00:00:00         1.02         99811.  1022. 8.73e4   85.3       11388.       11105.
#> 10 2015-10-25 00:00:00         1.07         74339.   842. 6.48e4  113          8626.        8061.
#> # ... with 18,239 more rows, and 5 more variables: `Large Bags` <dbl>, `XLarge Bags` <dbl>,
#> #   type <chr>, year <dbl>, region <chr>
…
